"Year","Agricultural land (sq. km)","Air transport, freight (million ton-km)","Arable land (hectares)","CO2 emissions from transport (% of total fuel combustion)","Employment in agriculture (% of total employment)","Employment in industry (% of total employment)","Employment in services (% of total employment)","Energy use (kg of oil equivalent per capita)","GDP (constant LCU)","Imports of goods and services (constant LCU)","Industry, value added (constant LCU)","Internet users (per 100 people)","Manufacturing, value added (constant LCU)","Merchandise exports (current US$)","Merchandise imports (current US$)","Railways, goods transported (million ton-km)","Urban population"
"1960","","","","16.4619694031459","","","","2698.7923025453697","978732660990.99","165618942429.674","","","","2566300000","2900710000","","5425627"
"1961","42370","","3549000","17.9358498799913","","","","2742.12346864986","1034339722625.7","165948244449.39","","","","2744520000","2928550000","","5511783"
"1962","41720","","3484000","17.5862781566439","","","","2887.23625249088","1078389903399.01","175372970919.319","","","","2924680000","3122630000","","5616067"
"1963","39810","","3293000","17.1471641228566","","","","3080.41407472166","1135845415451.72","187895575648.797","","","","3202650000","3392860000","","5720204"
"1964","39430","","3255000","17.8679480334579","","","","3273.5089646033803","1213326618806.69","206105780498.92603","","","","3675470000","3855630000","","5834351"
"1965","38490","","3161000","17.5958479825883","","","","3437.5407704284003","1259693327076.74","233682122922.367","","","","3970840000","4377170000","","5959398"
"1966","37970","","3109000","16.7097854207883","","","","3636.64385741586","1286031454679.86","243616530337.133","","","","4266400000","4582070000","","6083367"
"1967","37850","","3096000","17.3594521420608","","","","3630.1941387132106","1329312816787.51","249609908147.798","","","","4527560000","4700950000","","6194186"
"1968","37210","","3027000","16.6382737081204","","","","4000.82327796324","1377676571373.58","270287485186.911","","","","4910490000","5125640000","","6291760"
"1969","37450","","3051000","15.6820211815746","","","","4303.22391665136","1446693339611.35","305145138349.628","","","","5694530000","5909480000","","6397326"
"1970","37530","97.5999984741","3049000","15.6485543930701","","","","4681.29983571644","1534102677800","334037124200","","","","6794620000","7007450000","","6517403"
"1971","37580","100.0999984741","3047000","16.804173744236802","","","","4450.3825107732","1548594521100","322945039100","","","","7463410000","7066830000","","6605244"
"1972","37340","119.5999984741","3027000","17.1165718436025","","","","4527.21372025165","1584037804700","335777258600","","","","8768950000","8109720000","","6651027"
"1973","37180","127.5999984741","3014000","17.8788239495298","","","","4773.81140251259","1646892125900","359032476400","","","","12200700000","10907300000","","6688293"
"1974","37350","143","3015000","19.3698949824971","","","","4510.44301102151","1699562957900","394738305300","","","","15939400000","16682500000","","6733350"
"1975","37260","134.3999938965","3002000","19.4080604534005","","","","4764.499012931071","1742950466300","381043650700","","","","17383500000","17450300000","","6777603"
"1976","37350","154.5","2999000","19.114408253158697","","","","5151.25136732047","1761392709900","415368057100","","","","18434900000","19627600000","","6808217"
"1977","37220","170.8000030518","2990000","20.5666946812342","","","","5054.83376436399","1733276327600","399775536600","","","","19082200000","20137000000","","6838299"
"1978","37280","188.1000061035","2996000","22.6395677900695","","","","5016.74041963609","1763635495200","377886477000","","","","21789700000","20588800000","","6864113"
"1979","37110","182.3000030518","2981000","21.5647190731282","","","","5229.618270687621","1831359160200","421807063300","","","","27602100000","28735400000","","6885080"
"1980","37040","175","2975000","22.691364750749102","5.599999904632571","32.2000007629395","62.2000007629395","4871.533238971129","1862491742500","423636239800","422158214000","","210875219100","30906000000","33438000000","15913.7","6904971"
"1981","36750","178.3000030518","2956000","24.564302884615397","5.599999904632571","31.2999992370605","63.0999984741211","5097.15446289726","1870962922000","401141208800","408368100600","","203198692100","28658000000","28840000000","14555","6914338"
"1982","36600","173.3000030518","2946000","26.9804822043628","5.599999904632571","30.2999992370605","64.099998474121","4877.7998965318","1894324975100","419652077100","410398696300","","201388257600","26808000000","27585000000","13644","6918294"
"1983","36360","166.1999969482","2937000","30.2380093761269","5.400000095367429","29.899999618530302","64.6999969482422","4941.267011428579","1930329248500","424808820200","425453591300","","212916115600","27446000000","26098000000","14950.6","6921426"
"1984","36110","173","2929000","32.1696216413818","5.09999990463257","29.7999992370605","65.099998474121","5216.25781718097","2011973204400","448966589300","464569273400","","232653889800","29378000000","26426000000","16944","6927719"
"1985","34940","171.8000030518","2918000","30.8831036242981","4.800000190734861","29.7999992370605","65.3000030517578","5656.19289934621","2055439345200","484663832100","477927301500","","238125583300","30461000000","28548000000","17331","6939171"
"1986","34760","173.6999969482","2904000","31.9715514389679","4","29.7000007629395","66.5","5878.80146655326","2110757861000","502942083200","485760207000","","240051248800","37263000000","32693000000","17471","6955328"
"1987","34550","169.1999969482","2886000","33.520982599795296","4","29.899999618530302","66","5763.07044079619","2181549365100","541220664600","497137625000","","245425530500","44506000000","40706000000","17329","6978575"
"1988","34370","175","2868000","36.8861209964413","3.9000000953674303","29.5","66.599998474121","5854.499662122479","2237376057700","565625292700","507704900700","","253832646200","49747000000","45627000000","17774","7010722"
"1989","34180","185.3000030518","2849000","39.9099774943736","3.5999999046325697","29.5","66.8000030517578","5594.55297349665","2296774071900","609116397900","511083351600","","255022971200","51547000000","48975000000","18214","7057653"
"1990","34130","191.1000061035","2841000","37.4502746732336","3.4000000953674303","29.2000007629395","67.1999969482422","5514.557530318089","2314107245900","613144473000","502460124700","0.584192066461428","250166635300","57540000000","54264000000","18441","7112392"
"1991","33580","186.6999969482","2787000","36.30763487026321","3.29999995231628","28.2999992370605","68.3000030517578","5650.54137715952","2287588158600","583058526300","488674402600","1.1605194531493102","238483156000","55217000000","49990000000","17980","7170001"
"1992","33440","180.3999938965","2765000","35.9928762243989","3.29999995231628","26.600000381469698","70","5369.370356735821","2261084328300","591724703100","467696854300","1.4978713519775302","227114483200","56118000000","50017000000","19202","7225787"
"1993","33560","192.3000030518","2777000","34.6664275466284","3.5","25.600000381469698","70.8000030517578","5334.16649834761","2214379000000","578945000000","451455000000","1.71636418227147","227655000000","49934000000","42713000000","18775","7281393"
"1994","33560","195.8000030518","2777000","34.590869939707105","3.5","25.100000381469698","71.4000015258789","5660.27142343844","2304894000000","653382000000","493846000000","3.41281009645739","263940000000","65822000000","55458000000","18591","7346937"
"1995","32670","192","2764000","35.1154313487242","3.5","25.5","71","5702.165042717529","2397650000000","699921000000","543314000000","5.098024243710941","300071000000","80440000000","65036000000","18840","7399093"
"1996","32970","249.6000061035","2809000","31.728179946142898","3.29999995231628","25.7999992370605","70.8000030517578","5825.097913154151","2434043000000","724009000000","555620000000","9.04359975966634","310335000000","84916000000","66930000000","18840","7418835"
"1997","32590","293.6000061035","2796000","35.5617780889044","3.20000004768372","25.5","71.099998474121","5672.008177197939","2504642000000","814130000000","584011000000","23.7279475562643","337361000000","82757000000","65596000000","19120","7425561"
"1998","32310","294.200012207","2781000","35.6069763426006","3","25.899999618530302","71","5769.69506406865","2610508000000","906205000000","618818000000","33.4675123251094","366826000000","84767365000","68403006000","19024","7432163"
"1999","31940","291","2744000","37.242108975489295","2.4000000953674303","25","72.1999969482422","5661.49145946307","2728768000000","952586000000","658873000000","41.4327831641401","396031000000","84889216183","68580272642","18910","7440437"
"2000","31530","289.285","2703000","40.352874217416","2.4000000953674303","24.7000007629395","72.9000015258789","5360.14514699943","2857983000000","1064505000000","707517000000","45.6876522122282","434223000000","87132464879","72879776933","19084","7454878"
"2001","31540","263.787","2691000","40.6357717349674","2.2999999523162797","23.7999992370605","73.599998474121","5680.280486872691","2902665000000","1046221000000","714229000000","51.765664937280796","430484000000","75644878826","63199505917","12000","7478923"
"2002","31700","266.838","2677000","39.72222222222221","2.2000000476837203","23","74.599998474121","5802.110105168001","2962854000000","1033088000000","739102000000","70.57","450039000000","81499067995","66954943346","12002","7508835"
"2003","31630","252.88","2666000","39.368650217706794","2.2000000476837203","22.7000007629395","75","5650.43804975291","3033540000000","1072552000000","759064000000","79.13","470156000000","102104163804","83540416061","12829","7542470"
"2004","31840","256.516","2656000","41.3741598207618","2.2000000476837203","22.600000381469698","75.1999969482422","5847.3441632658","3164605000000","1143400000000","824343000000","83.89","513206000000","123266731750","100432895530","13120","7577769"
"2005","32160","","2694000","44.6762018275725","2","22","75.599998474121","5711.127282666329","3253794000000","1223356000000","849762000000","84.83","532987000000","130961940353.80199","111696839819.35","13120","7613645"
"2006","31630","","2651000","46.7305289462724","2","22","75.6999969482422","5529.07795326361","3406336000000","1323980000000","903944000000","87.76","576422000000","147792821570.42","127547064370.07199","11500","7666670"
"2007","31370","","2639000","49.018338727076596","2","21.7000007629395","75.9000015258789","5472.13539172977","3522320000000","1425059000000","951412000000","82.01","600359000000","168817020131.607","153226243045.975","11500","7738188"
"2008","30930","","2626000","49.4708399009232","1.89999997615814","21.3999996185303","76.3000030517578","5379.9591025113","3502699000000","1479088000000","914389000000","90","582828000000","183327276526.893","168502551409.13098","11500","7813274"
"2009","30790","","2634000","50.5384063173008","1.89999997615814","20.2999992370605","77.5","4883.20048954053","3321096000000","1270869000000","773853000000","91","468437000000","130780728959.214","119875972482.80699","","7894625"
"2010","30850","","2625000","45.6682906163948","1.79999995231628","20","77.9000015258789","5427.92504600599","3519994000000","1433259000000","895348000000","90","575259000000","158549372796.37698","148945624582.844","","7976659"
"2011","30660","","2610000","48.1813996316759","1.79999995231628","20","77.8000030517578","5274.643613177101","3613781000000","1538508000000","917351000000","92.76998605540459","603579000000","186963139200","177025929600","","8051674"
"2012","30486","","2599000","49.55467590301829","1.79999995231628","19.7999992370605","77.9000015258789","5269.48599771372","3603434000000","1545926000000","876444000000","93.1799880065108","559797000000","172660032160","164002921280","","8126023"
"2013","30479","","2596000","","1.79999995231628","19.2999992370605","78.3000030517578","5001.35109249333","3648160000000","1544099000000","860445000000","94.7836","555903000000","167734647270","159709337400","","8209668"
"2014","","","","","1.70000004768372","18.7000007629395","79","","3733229000000","1640690000000","876489000000","92.52","551440000000","164648178900","161475588050","","8300557"
