"Year","Agricultural land (% of land area)","Air transport, freight (million ton-km)","Air transport, passengers carried","Air transport, registered carrier departures worldwide","CO2 emissions from transport (% of total fuel combustion)","Energy use (kg of oil equivalent per capita)","Exports of goods and services (% of GDP)","GDP growth (annual %)","Imports of goods and services (constant LCU)","Industry, value added (constant LCU)","Internet users (per 100 people)","Manufacturing, value added (constant LCU)","Merchandise exports (current US$)","Merchandise imports (current US$)","Population growth (annual %)","Rail lines (total route-km)","Railways, goods transported (million ton-km)","Railways, passengers carried (million passenger-km)"
1980,9.02666081785836,175,5209400,117100,22.6913647507491,4871.53323897113,27.9592421367735,1.69997141885594,423636239800,422158214000,NA,210875219100,3.0906e+10,3.3438e+10,0.202996791804766,11377,15913.7,6787
1981,8.95598771750256,178.3000030518,5632000,123400,24.5643028846154,5097.15446289726,28.6532005278922,0.454830446046927,401141208800,408368100600,NA,203198692100,2.8658e+10,2.884e+10,0.119920399357645,11340,14555,6851
1982,8.91943266559439,173.3000030518,6091100,127700,26.9804822043628,4877.7998965318,30.9982144481665,1.24866467556859,419652077100,410398696300,NA,201388257600,2.6808e+10,2.7585e+10,0.0571917222643352,11760,13644,6381
1983,8.86094458254131,166.1999969482,6590800,140100,30.2380093761269,4941.26701142858,34.0289657657065,1.9006386904707,424808820200,425453591300,NA,212916115600,2.7446e+10,2.6098e+10,0.0452736046530332,11760,14950.6,6460
1984,8.80001949602769,173,7335200,152000,32.1696216413818,5216.25781718097,34.6742608185632,4.22953524448965,448966589300,464569273400,NA,232653889800,2.9378e+10,2.6426e+10,0.0908696147250346,11637,16944,6483
1985,8.51489009114393,171.8000030518,7609600,150300,30.8831036242981,5656.19289934621,33.6200061005654,2.16037374180449,484663832100,477927301500,NA,238125583300,3.0461e+10,2.8548e+10,0.165170618633822,11266,17331,6586
1986,8.47102402885412,173.6999969482,8713900,173100,31.9715514389679,5878.80146655326,31.3710213571507,2.69132319225005,502942083200,485760207000,NA,240051248800,3.7263e+10,3.2693e+10,0.23256888459452,11236,17471,6152
1987,8.41984695618268,169.1999969482,9428800,180200,33.5209825997953,5763.07044079619,30.973195257999,3.35384296834795,541220664600,497137625000,NA,245425530500,4.4506e+10,4.0706e+10,0.333678891427395,11194,17329,6013
1988,8.37598089389287,175,10211900,189700,36.8861209964413,5854.49966212248,30.6888786498811,2.55903870401031,565625292700,507704900700,NA,253832646200,4.9747e+10,4.5627e+10,0.459598369773659,11076,17774,6081
1989,8.32967782814252,185.3000030518,10855000,203000,39.9099774943736,5594.55297349665,30.4551122157362,2.65480691078193,609116397900,511083351600,NA,255022971200,5.1547e+10,4.8975e+10,0.66718292068369,11022,18214,6060
1990,8.31749281083979,191.1000061035,11402500,208000,37.4502746732336,5514.55753031809,28.7459972550409,0.754674750645407,613144473000,502460124700,0.584192066461428,250166635300,5.754e+10,5.4264e+10,0.772602675661167,10081,18441,6076
1991,8.18345762050982,186.6999969482,9826800,178100,36.3076348702632,5650.54137715952,26.8646242490451,-1.14597486123364,583058526300,488674402600,1.16051945314931,238483156000,5.5217e+10,4.999e+10,0.681643117607529,10970,17980,5524
1992,8.14933957206219,180.3999938965,9923500,186700,35.9928762243989,5369.37035673582,26.7234513004522,-1.15859273883548,591724703100,467696854300,1.49787135197753,227114483200,5.6118e+10,5.0017e+10,0.586529928761034,9846,19202,5234
1993,8.17858361358873,192.3000030518,9719000,183200,34.6664275466284,5334.16649834761,31.3074655581468,-2.06561638216809,5.78945e+11,4.51455e+11,1.71636418227147,2.27655e+11,4.9934e+10,4.2713e+10,0.580838814302139,10361,18775,5830
1994,8.17858361358873,195.8000030518,10807700,195100,34.5908699397071,5660.27142343844,34.4905192690118,4.08760198683242,6.53382e+11,4.93846e+11,3.41281009645739,2.6394e+11,6.5822e+10,5.5458e+10,0.710705461619655,9661,18591,5906
1995,7.96169030560023,192,9498000,170600,35.1154313487242,5702.16504271753,38.0028902685444,4.02430654077801,6.99921e+11,5.43314e+11,5.09802424371094,3.00071e+11,8.044e+10,6.5036e+10,0.524703941553734,9782,18840,6219
1996,8.03480040941658,249.6000061035,9879000,183500,31.7281799461429,5825.09791315415,36.8333743093386,1.51786123912999,7.24009e+11,5.5562e+11,9.04359975966634,3.10335e+11,8.4916e+10,6.693e+10,0.159147080582875,10158,18840,6218
1997,7.94219427791587,293.6000061035,11326900,207400,35.5617780889044,5672.00817719794,40.0517317969297,2.9004828591771,8.1413e+11,5.84011e+11,23.7279475562643,3.37361e+11,8.2757e+10,6.5596e+10,0.0572622034229794,10228,19120,6814
1998,7.87395818102062,294.200012207,11877700,223400,35.6069763426006,5769.69506406865,41.0272899529805,4.2267916931841,9.06205e+11,6.18818e+11,33.4675123251094,3.66826e+11,84767365000,68403006000,0.0555121222123307,10216,19024,6997
1999,7.78378905298046,291,12917600,236300,37.2421089754893,5661.49145946307,41.0378425044708,4.53015275187818,9.52586e+11,6.58873e+11,41.4327831641401,3.96031e+11,84889216183,68580272642,0.0779271508703018,10221,18910,7434
2000,7.68387191109811,289.285,13354314,247707,40.352874217416,5360.14514699943,44.0979466113921,4.73528713324107,1.064505e+12,7.07517e+11,45.6876522122282,4.34223e+11,87132464879,72879776933,0.160575484575313,10068,19084,6006
2001,7.68630891455866,263.787,13123426,233803,40.6357717349674,5680.28048687269,43.7539596389213,1.56341027920739,1.046221e+12,7.14229e+11,51.7656649372808,4.30484e+11,75644878826,63199505917,0.268470527954234,9865,12000,5575
2002,7.72530096992738,266.838,12421220,198291,39.7222222222222,5802.110105168,42.090046367996,2.07357721266493,1.033088e+12,7.39102e+11,70.57,4.50039e+11,81499067995,66954943346,0.325438067703728,9857,12002,5792
2003,7.70824194570356,252.88,11586025,183532,39.3686502177068,5650.43804975291,41.2443052072759,2.38574023559717,1.072552e+12,7.59064e+11,79.13,4.70156e+11,102104163804,83540416061,0.372092942799084,9882,12829,5733
2004,7.75941901837501,256.516,11623925,190315,41.3741598207618,5847.3441632658,43.4469175060559,4.32052981005691,1.1434e+12,8.24343e+11,83.89,5.13206e+11,123266731750,100432895530,0.393298991357658,9895,13120,5100
2005,7.83740312911244,NA,NA,NA,44.6762018275725,5711.12728266633,45.8732551132439,2.8183296177564,1.223356e+12,8.49762e+11,84.83,5.32987e+11,130961940353.802,111696839819.35,0.399942762807279,9867,13120,5673
2006,7.70824194570356,NA,NA,NA,46.7305289462724,5529.07795326361,48.1899956793643,4.68812715248721,1.32398e+12,9.03944e+11,87.76,5.76422e+11,147792821570.42,127547064370.072,0.562483906481893,9957,11500,5680
2007,7.64487985572939,NA,NA,NA,49.0183387270766,5472.13539172977,48.2580656119268,3.40494889523524,1.425059e+12,9.51412e+11,82.01,6.00359e+11,168817020131.607,153226243045.975,0.741552514625445,9821,11500,6467
2008,7.53765170346542,NA,NA,NA,49.4708399009232,5379.9591025113,49.8130977131591,-0.55704762769993,1.479088e+12,9.14389e+11,90,5.82828e+11,183327276526.893,168502551409.131,0.779033290770134,9830,11500,7156
2009,7.50353365501779,NA,NA,NA,50.5384063173008,4883.20048954053,44.452303460322,-5.18465903007937,1.270869e+12,7.73853e+11,91,4.68437e+11,130780728959.214,119875972482.807,0.851904412936677,9946,NA,7038
2010,7.51815567578106,NA,NA,NA,45.6682906163948,5427.92504600599,46.1851923611233,5.98892654713985,1.433259e+12,8.95348e+11,90,5.75259e+11,158549372796.377,148945624582.844,0.852524628765313,9957,NA,6774
2011,7.47185261003071,NA,NA,NA,48.1813996316759,5274.6436131771,46.6828949588645,2.66440795069538,1.538508e+12,9.17351e+11,92.7699860554046,6.03579e+11,186963139200,177025929600,0.755150133665177,10014,NA,6431
2012,7.48416556193843,NA,NA,NA,49.5546759030183,5269.48599771372,46.3231382978723,-0.286320615444041,1.545926e+12,8.76444e+11,93.1799880065108,5.59797e+11,172660032160,164002921280,0.739763272434863,9944,NA,6415
2013,7.48244709579221,NA,NA,NA,NA,5001.35109249333,43.8006859051505,1.24120491730943,1.544099e+12,8.60445e+11,94.7836,5.55903e+11,167734647270,159709337400,0.847348652246305,9765,NA,6056
2014,NA,NA,NA,NA,NA,NA,44.5045326481083,2.33183303363889,1.64069e+12,8.76489e+11,92.52,5.5144e+11,164648178900,161475588050,0.924592435436623,9689,NA,6132
